[
    [ { "maxDOM": 31, "maxDays": 25, "toPearce": 5} ],
    [ { "maxDOM": 29, "maxDays": 25, "toPearce": 5} ],
    [ { "maxDOM": 31, "maxDays": 21, "toPearce": 5} ],
    [ { "maxDOM": 30, "maxDays": 21, "toPearce": 5} ],
    [ { "maxDOM": 31, "maxDays": 16, "toPearce": 3} ],
    [ { "maxDOM": 30, "maxDays": 16, "toPearce": 3} ],
    [ { "maxDOM": 31, "maxDays": 16, "toPearce": 3} ],
    [ { "maxDOM": 31, "maxDays": 16, "toPearce": 3} ],
    [ { "maxDOM": 15, "maxDays": 18, "toPearce": 3}, { "maxDOM": 30, "maxDays": 21, "toPearce": 3} ],
    [ { "maxDOM": 31, "maxDays": 21, "toPearce": 5} ],
    [ { "maxDOM": 30, "maxDays": 25, "toPearce": 5} ],
    [ { "maxDOM": 31, "maxDays": 25, "toPearce": 5} ]
]