[
    {"page": "1" , "mile": 0.0, "place" : "Lees Ferry" ,            "tides":  { "at4mph": { "delay": "3.75", "rise": "10:45"}, "at43mph": { "delay": "3.49" , "rise": "10:29"}, "at45mph": { "delay": "3.33" , "rise": "10:19"}, "at5mph": {"delay": "3.00" , "rise": "10:00" }}},
    {"page": "2" , "mile": 8.1, "place" : "Badger Camp" ,           "tides": { "at4mph": { "delay": "5.75", "rise": "12:45"}, "at43mph": { "delay": "5.37" , "rise": "12:22"}, "at45mph": { "delay": "5.11" , "rise": "12:06"}, "at5mph": { "delay": "4.60" , "rise": "11:36"}}},
    {"page": "3" , "mile": 12.1, "place" : "Brown's Inscription" ,  "tides": { "at4mph": { "delay": "6.75" , "rise": "13:45"}, "at43mph": { "delay": "6.30" , "rise": "13:18"}, "at45mph": { "delay" : "6.00" , "rise": "13:00"}, "at5mph": { "delay": "5.40" , "rise": "12:24"}}},
    {"page": "4" , "mile": 16.6, "place" : "Hot Na Na Camp" ,       "tides": { "at4mph": { "delay": "7.88" , "rise": "14:52"}, "at43mph": { "delay": "7.37" , "rise": "14:22"}, "at45mph": { "delay": "7.00" , "rise": "14:00"}, "at5mph": { "delay": "6.30" , "rise": "13:18"}}},
    {"page": "4" , "mile": 20.7, "place" : "North Canyon" ,         "tides": { "at4mph": { "delay": "8.88" , "rise": "15:52"}, "at43mph": { "delay": "8.30" , "rise": "15:18"}, "at45mph": { "delay": "7.89" , "rise": "14:53"}, "at5mph": { "delay": "7.10" , "rise": "14:06"}}},
    {"page": "5" , "mile": 24.6, "place" : "24 1/2 Camp" ,          "tides": { "at4mph": { "delay": "9.88" , "rise": "16:52"}, "at43mph": { "delay": "9.23" , "rise": "16:13"}, "at45mph": { "delay": "8.78" , "rise": "15:46"}, "at5mph": { "delay": "7.90" , "rise": "14:54"}}},
    {"page": "6" , "mile": 29.4, "place" : "Shinumo Wash/Silver Gto" , "tides": { "at4mph": { "delay": "11.00" , "rise": "18:00"}, "at43mph": { "delay": "10.35" , "rise": "17:21"}, "at45mph": { "delay": "9.78" , "rise": "16:46"}, "at5mph": { "delay": "8.80" , "rise": "15:48"}}},
    {"page": "7" , "mile": 35.0, "place" : "Nautiloid Camp" ,       "tides": { "at4mph": { "delay": "12.50" , "rise": "19:30"}, "at43mph": { "delay": "11.63" , "rise": "18:37"}, "at45mph": { "delay": "11.11" , "rise": "18:06"}, "at5mph": { "delay": "10.00" , "rise": "17:00"}}},
    {"page": "8" , "mile": 44.0, "place" : "Pres Harding" ,         "tides": { "at4mph": { "delay": "14.75" , "rise": "21:45"}, "at43mph": { "delay": "13.72" , "rise": "20:43"}, "at45mph": { "delay": "13.11" , "rise": "20:06"}, "at5mph": { "delay": "11.80" , "rise": "18:48"}}},
    {"page": "9" , "mile": 52.1, "place" : "Little Nankoweap" ,     "tides": { "at4mph": { "delay": "16.75" , "rise": "23:45"}, "at43mph": { "delay": "15.60" , "rise": "22:36"}, "at45mph": { "delay": "14.89" , "rise": "21:53"}, "at5mph": { "delay": "13.40" , "rise": "20:24"}}},
    {"page": "10" , "mile": 53.1, "place" : "Nankoweap Camps" ,     "tides": { "at4mph": { "delay": "17.00" , "rise": "00:00"}, "at43mph": { "delay": "15.84" , "rise": "22:50"}, "at45mph": { "delay": "15.11" , "rise": "22:06"}, "at5mph": { "delay": "13.60" , "rise": "20:36"}}},
    {"page": "11" , "mile": 61.7, "place" : "Little Colorado" ,     "tides": { "at4mph": { "delay": "19.13" , "rise": "02:07"}, "at43mph": { "delay": "17.84" , "rise": "00:50"}, "at45mph": { "delay": "17.00" , "rise": "00:00"}, "at5mph": { "delay": "15.30" , "rise": "22:18"}}},
    {"page": "12" , "mile": 65.9, "place" : "Lava Canyon" ,         "tides": { "at4mph": { "delay": "20.13" , "rise": "03:07"}, "at43mph": { "delay": "18.81" , "rise": "01:48"}, "at45mph": { "delay": "17.89" , "rise": "00:53"}, "at5mph": { "delay": "16.10" , "rise": "23:06"}}},
    {"page": "13" , "mile": 71.6, "place" : "Cardenas Camp" ,       "tides": { "at4mph": { "delay": "21.50" , "rise": "04:30"}, "at43mph": { "delay": "20.14" , "rise": "03:08"}, "at45mph": { "delay": "19.11" , "rise": "02:06"}, "at5mph": { "delay": "17.20" , "rise": "00:12"}}},
    {"page": "14" , "mile": 77.1, "place" : "Hance Camp" ,          "tides": { "at4mph": { "delay": "22.90" , "rise": "05:54"}, "at43mph": { "delay": "21.42" , "rise": "04:25"}, "at45mph": { "delay": "20.36" , "rise": "03:21"}, "at5mph": { "delay": "18.32" , "rise": "01:19"}}},
    {"page": "15" , "mile": 81.7, "place" : "Grapevine Camp" ,      "tides": { "at4mph": { "delay": "24.00" , "rise": "07:00"}, "at43mph": { "delay": "22.49" , "rise": "05:29"}, "at45mph": { "delay": "21.33" , "rise": "04:19"}, "at5mph": { "delay": "19.20" , "rise": "02:12"}}},
    {"page": "16" , "mile": 88.1, "place" : "Phantom Ranch" ,       "tides": { "at4mph": { "delay": "25.63" , "rise": "08:37"}, "at43mph": { "delay": "23.98" , "rise": "06:58"}, "at45mph": { "delay": "22.78" , "rise": "05:46"}, "at5mph": { "delay": "20.50" , "rise": "03:30"}}},
    {"page": "16" , "mile": 90.8, "place" : "Horn Creek" ,          "tides": { "at4mph": { "delay": "26.30" , "rise": "09:18"}, "at43mph": { "delay": "24.60" , "rise": "07:36"}, "at45mph": { "delay": "23.38" , "rise": "06:22"}, "at5mph": { "delay": "21.04" , "rise": "04:02"}}},
    {"page": "17" , "mile": 93.8, "place" : "Granite Camp" ,        "tides": { "at4mph": { "delay": "27.33" , "rise": "10:19"}, "at43mph": { "delay": "25.33" , "rise": "08:19"}, "at45mph": { "delay": "24.29" , "rise": "07:17"}, "at5mph": { "delay": "21.86" , "rise": "04:51"}}},
    {"page": "18" , "mile": 98.7, "place" : "Upper Crystal Camp" ,  "tides": { "at4mph": { "delay": "28.25" , "rise": "11:15"}, "at43mph": { "delay": "26.44" , "rise": "09:26"}, "at45mph": { "delay": "25.11" , "rise": "08:06"}, "at5mph": { "delay": "22.60" , "rise": "05:36"}}},
    {"page": "19" , "mile": 103.5, "place" : "New Shady Grove" ,    "tides": { "at4mph": { "delay": "29.70" , "rise": "12:42"}, "at43mph": { "delay": "27.56" , "rise": "10:33"}, "at45mph": { "delay": "26.40" , "rise": "09:24"}, "at5mph": { "delay": "23.76" , "rise": "06:45"}}},
    {"page": "20" , "mile": 109.0, "place" : "Lower Bass Camp" ,    "tides": { "at4mph": { "delay": "30.83" , "rise": "13:49"}, "at43mph": { "delay": "28.84" , "rise": "11:50"}, "at45mph": { "delay": "27.40" , "rise": "10:24"}, "at5mph": { "delay": "24.66" , "rise": "07:39"}}},
    {"page": "21" , "mile": 116.5, "place" : "Elves Chasm" ,        "tides": { "at4mph": { "delay": "32.88" , "rise": "15:52"}, "at43mph": { "delay": "30.74" , "rise": "13:44"}, "at45mph": { "delay": "29.22" , "rise": "12:13"}, "at5mph": { "delay": "26.30" , "rise": "09:18"}}},
    {"page": "22" , "mile": 120.6, "place" : "Blacktail Camps" ,    "tides": { "at4mph": { "delay": "33.75" , "rise": "16:45"}, "at43mph": { "delay": "31.53" , "rise": "14:31"}, "at45mph": { "delay": "30.00" , "rise": "13:00"}, "at5mph": { "delay": "27.00" , "rise": "10:00"}}},
    {"page": "23" , "mile": 127.0, "place" : "Randy's Rock" ,       "tides": { "at4mph": { "delay": "35.35" , "rise": "18:21"}, "at43mph": { "delay": "33.02" , "rise": "16:01"}, "at45mph": { "delay": "31.42" , "rise": "14:25"}, "at5mph": { "delay": "28.28" , "rise": "11:16"}}},
    {"page": "24" , "mile": 132.3, "place" : "Dubendorf Rapid" ,    "tides": { "at4mph": { "delay": "36.68" , "rise": "19:40"}, "at43mph": { "delay": "34.26" , "rise": "17:15"}, "at45mph": { "delay": "32.60" , "rise": "15:36"}, "at5mph": { "delay": "29.34" , "rise": "12:20"}}},
    {"page": "24" , "mile": 132.5, "place" : "Stone Creek" ,        "tides": { "at4mph": { "delay": "36.70" , "rise": "19:42"}, "at43mph": { "delay": "34.28" , "rise": "17:16"}, "at45mph": { "delay": "32.62" , "rise": "15:37"}, "at5mph": { "delay": "29.36" , "rise": "12:21"}}},
    {"page": "24" , "mile": 134.2, "place" : "Racetrack (Tapeats)", "tides": { "at4mph": { "delay": "37.13" , "rise": "20:07"}, "at43mph": { "delay": "34.70" , "rise": "17:42"}, "at45mph": { "delay": "33.00" , "rise": "16:00"}, "at5mph": { "delay": "29.70" , "rise": "12:42"}}},
    {"page": "25" , "mile": 136.8, "place" : "Deer Creek" ,         "tides": { "at4mph": { "delay": "38.03" , "rise": "21:01"}, "at43mph": { "delay": "35.53" , "rise": "18:31"}, "at45mph": { "delay": "33.80" , "rise": "16:48"}, "at5mph": { "delay": "30.42" , "rise": "13:25"}}},
    {"page": "26" , "mile": 146.1, "place" : "Olo Camp" ,           "tides": { "at4mph": { "delay": "40.13" , "rise": "23:07"}, "at43mph": { "delay": "37.47" , "rise": "20:28"}, "at45mph": { "delay": "35.67" , "rise": "18:40"}, "at5mph": { "delay": "32.10" , "rise": "15:06"}}},
    {"page": "27" , "mile": 152.1, "place" : "Ledges Camp" ,        "tides": { "at4mph": { "delay": "41.63" , "rise": "00:37"}, "at43mph": { "delay": "38.86" , "rise": "21:51"}, "at45mph": { "delay": "37.00" , "rise": "20:00"}, "at5mph": { "delay": "33.30" , "rise": "16:18"}}},
    {"page": "28" , "mile": 157.3, "place" : "Havasu Canyon" ,      "tides": { "at4mph": { "delay": "42.93" , "rise": "01:55"}, "at43mph": { "delay": "40.07" , "rise": "23:04"}, "at45mph": { "delay": "38.16" , "rise": "21:09"}, "at5mph": { "delay": "34.34" , "rise": "17:20"}}},
    {"page": "29" , "mile": 165.1, "place" : "Tuckup Camp" ,        "tides": { "at4mph": { "delay": "44.88" , "rise": "03:52"}, "at43mph": { "delay": "41.86" , "rise": "00:51"}, "at45mph": { "delay": "39.89" , "rise": "22:53"}, "at5mph": { "delay": "35.90" , "rise": "18:54"}}},
    {"page": "30" , "mile": 168.6, "place" : "Fern Glen Camp" ,     "tides": { "at4mph": { "delay": "45.75" , "rise": "04:45"}, "at43mph": { "delay": "42.67" , "rise": "01:40"}, "at45mph": { "delay": "40.67" , "rise": "23:40"}, "at5mph": { "delay": "36.60" , "rise": "19:36"}}},
    {"page": "31" , "mile": 174.7, "place" : "Upper Cove Camp" ,    "tides": { "at4mph": { "delay": "47.30" , "rise": "06:18"}, "at43mph": { "delay": "44.12" , "rise": "03:07"}, "at45mph": { "delay": "42.04" , "rise": "01:02"}, "at5mph": { "delay": "37.84" , "rise": "20:50"}}},
    {"page": "32" , "mile": 178.0, "place" : "Above Anvil" ,        "tides": { "at4mph": { "delay": "48.18" , "rise": "07:10"}, "at43mph": { "delay": "44.88" , "rise": "03:52"}, "at45mph": { "delay": "42.82" , "rise": "01:49"}, "at5mph": { "delay": "38.54" , "rise": "21:32"}}},
    {"page": "33" , "mile": 185.9, "place" : "185.5 Camp" ,         "tides": { "at4mph": { "delay": "50.08" , "rise": "09:04"}, "at43mph": { "delay": "46.72" , "rise": "05:43"}, "at45mph": { "delay": "44.51" , "rise": "03:30"}, "at5mph": { "delay": "40.06" , "rise": "23:03"}}},
    {"page": "34" , "mile": 188.4, "place" : "Whitmore Camp" ,      "tides": { "at4mph": { "delay": "50.75" , "rise": "09:45"}, "at43mph": { "delay": "47.30" , "rise": "06:18"}, "at45mph": { "delay": "45.11" , "rise": "04:06"}, "at5mph": { "delay": "40.60" , "rise": "23:36"}}},
    {"page": "35" , "mile": 197.0, "place" : "Below Frogy" ,        "tides": { "at4mph": { "delay": "52.88" , "rise": "11:52"}, "at43mph": { "delay": "49.30" , "rise": "08:18"}, "at45mph": { "delay": "47.00" , "rise": "06:00"}, "at5mph": { "delay": "42.30" , "rise": "01:18"}}},
    {"page": "36" , "mile": 202.3, "place" : "Lower 202" ,          "tides": { "at4mph": { "delay": "54.25" , "rise": "13:15"}, "at43mph": { "delay": "50.53" , "rise": "09:31"}, "at45mph": { "delay": "48.22" , "rise": "07:13"}, "at5mph": { "delay": "43.40" , "rise": "02:24"}}},
    {"page": "37" , "mile": 207.0, "place" : "Indian Canyon" ,      "tides": { "at4mph": { "delay": "55.25" , "rise": "14:15"}, "at43mph": { "delay": "51.63" , "rise": "10:37"}, "at45mph": { "delay": "49.11" , "rise": "08:06"}, "at5mph": { "delay": "44.20" , "rise": "03:12"}}},
    {"page": "38" , "mile": 213.3, "place" : "Pumpkin Spring" ,     "tides": { "at4mph": { "delay": "56.98" , "rise": "15:58"}, "at43mph": { "delay": "53.09" , "rise": "12:05"}, "at45mph": { "delay": "50.64" , "rise": "09:38"}, "at5mph": { "delay": "45.58" , "rise": "04:34"}}},
    {"page": "39" , "mile": 220.0, "place" : "220 Mile Camps" ,     "tides": { "at4mph": { "delay": "58.50" , "rise": "17:30"}, "at43mph": { "delay": "54.70" , "rise": "13:42"}, "at45mph": { "delay": "52.00" , "rise": "11:00"}, "at5mph": { "delay": "46.80" , "rise": "05:48"}}},
    {"page": "40" , "mile": 223.7, "place" : "224 Mile Camp" ,      "tides": { "at4mph": { "delay": "59.60" , "rise": "18:36"}, "at43mph": { "delay": "55.51" , "rise": "14:30"}, "at45mph": { "delay": "52.98" , "rise": "11:58"}, "at5mph": { "delay": "47.68" , "rise": "06:40"}}} 
]